Reparsing block
----------
Full reparse
----------
After typing
----------
if($a){
  sub ($var,)<caret>){
    say 'hi'
  }
}

----------
Psi structure
----------
Perl5
  PsiPerlIfCompoundImpl(Perl5: IF_COMPOUND)
    PsiElement(Perl5: if)('if')
    PsiPerlConditionalBlockImpl(Perl5: CONDITIONAL_BLOCK)
      PsiPerlConditionExprImpl(Perl5: CONDITION_EXPR)
        PsiElement(Perl5: ()('(')
        PsiPerlScalarVariableImpl(Perl5: SCALAR_VARIABLE)
          PsiElement(Perl5: $$)('$')
          PerlVariableNameElementImpl(Perl5: SCALAR_NAME)('a')
        PsiElement(Perl5: ))(')')
      PsiPerlBlockImpl(Perl5: BLOCK)
        PsiElement(Perl5: {)('{')
        PsiWhiteSpace('\n  ')
        PsiErrorElement:Unexpected token
          PsiElement(Perl5: sub)('sub')
        PsiWhiteSpace(' ')
        PsiPerlStatementImpl(Perl5: STATEMENT)
          PsiPerlParenthesisedExprImpl(Perl5: PARENTHESISED_EXPR)
            PsiElement(Perl5: ()('(')
            PsiPerlCommaSequenceExprImpl(Perl5: COMMA_SEQUENCE_EXPR)
              PsiPerlScalarVariableImpl(Perl5: SCALAR_VARIABLE)
                PsiElement(Perl5: $$)('$')
                PerlVariableNameElementImpl(Perl5: SCALAR_NAME)('var')
              PsiElement(Perl5: ,)(',')
            PsiElement(Perl5: ))(')')
          PsiErrorElement:<statement modifier>, Perl5: ,, Perl5: => or Perl5: [ expected, got ')'
            PsiElement(Perl5: ))(')')
          PsiErrorElement:Semicolon expected
            <empty list>
        PsiPerlBlockCompoundImpl(Perl5: BLOCK_COMPOUND)
          PsiPerlBlockImpl(Perl5: BLOCK)
            PsiElement(Perl5: {)('{')
            PsiWhiteSpace('\n    ')
            PsiPerlStatementImpl(Perl5: STATEMENT)
              PsiPerlPrintExprImpl(Perl5: PRINT_EXPR)
                PsiElement(Perl5: say)('say')
                PsiWhiteSpace(' ')
                PsiPerlCallArgumentsImpl(Perl5: CALL_ARGUMENTS)
                  PsiPerlStringSqImpl(Perl5: STRING_SQ)
                    PsiElement(Perl5: QUOTE_SINGLE_OPEN)(''')
                    PerlStringContentElementImpl(Perl5: STRING_CONTENT)('hi')
                    PsiElement(Perl5: QUOTE_SINGLE_CLOSE)(''')
            PsiWhiteSpace('\n  ')
            PsiElement(Perl5: })('}')
        PsiWhiteSpace('\n')
        PsiElement(Perl5: })('}')
  PsiWhiteSpace('\n')
