Subtree: Perl5 (Perl5)
Perl5
  PsiPerlStatementImpl(Perl5: STATEMENT)
    PerlMooseAroundStatementImpl(Perl5: MOOSE_STATEMENT_AROUND)
      PerlMooseKeywordElementImpl(Perl5: MOOSE_AROUND)('around')
      PsiPerlSubCallImpl(SUB_CALL)
        PsiPerlMethodImpl(Perl5: METHOD)
          PerlSubNameElementImpl(Perl5: subname)('somefunc')
    PsiErrorElement:<call arguments>, <statement modifier>, Perl5: (, Perl5: ,, Perl5: => or Perl5: package::name expected, got ':'
      PsiElement(Perl5: :)(':')
    PsiErrorElement:Semicolon expected
      <empty list>
  PsiPerlStatementImpl(Perl5: STATEMENT)
    PsiPerlSubCallImpl(SUB_CALL)
      PsiPerlMethodImpl(Perl5: METHOD)
        PsiElement(Perl5: method)('method')
      PsiPerlCallArgumentsImpl(Perl5: CALL_ARGUMENTS)
        PsiPerlSubExprImpl(Perl5: SUB_EXPR)
          PsiPerlBlockImpl(Perl5: BLOCK)
            PsiElement(Perl5: {)('{')
            PsiPerlStatementImpl(Perl5: STATEMENT)
              PsiPerlPrintExprImpl(Perl5: PRINT_EXPR)
                PsiElement(Perl5: say)('say')
                PsiPerlCallArgumentsImpl(Perl5: CALL_ARGUMENTS)
                  PsiPerlStringSqImpl(Perl5: STRING_SQ)
                    PsiElement(Perl5: QUOTE_SINGLE_OPEN)(''')
                    PerlStringContentElementImpl(Perl5: STRING_CONTENT)('hi')
                    PsiElement(Perl5: QUOTE_SINGLE_CLOSE)(''')
              PsiElement(Perl5: ;)(';')
            PsiElement(Perl5: })('}')
--------------------------------------------------------------------------------
Subtree: Perl5 POD (Perl5 POD)
POD file
  PsiElement(Perl5 POD: POD_OUTER)('around somefunc: method{\n  say 'hi';\n}')
--------------------------------------------------------------------------------
