Reparsing block
----------
Full reparse
----------
After typing
----------
if($a){
  if( $a &&  '<caret> ){
    say 'hi'
  }
}

----------
Psi structure
----------
Perl5
  PsiPerlIfCompoundImpl(Perl5: IF_COMPOUND)
    PsiElement(Perl5: if)('if')
    PsiPerlConditionalBlockImpl(Perl5: CONDITIONAL_BLOCK)
      PsiPerlConditionExprImpl(Perl5: CONDITION_EXPR)
        PsiElement(Perl5: ()('(')
        PsiPerlScalarVariableImpl(Perl5: SCALAR_VARIABLE)
          PsiElement(Perl5: $$)('$')
          PerlVariableNameElementImpl(Perl5: SCALAR_NAME)('a')
        PsiElement(Perl5: ))(')')
      PsiPerlBlockImpl(Perl5: BLOCK)
        PsiElement(Perl5: {)('{')
        PsiWhiteSpace('\n  ')
        PsiPerlIfCompoundImpl(Perl5: IF_COMPOUND)
          PsiElement(Perl5: if)('if')
          PsiPerlConditionalBlockImpl(Perl5: CONDITIONAL_BLOCK)
            PsiPerlConditionExprImpl(Perl5: CONDITION_EXPR)
              PsiElement(Perl5: ()('(')
              PsiWhiteSpace(' ')
              PsiPerlAndExprImpl(Perl5: AND_EXPR)
                PsiPerlScalarVariableImpl(Perl5: SCALAR_VARIABLE)
                  PsiElement(Perl5: $$)('$')
                  PerlVariableNameElementImpl(Perl5: SCALAR_NAME)('a')
                PsiWhiteSpace(' ')
                PsiElement(Perl5: &&)('&&')
                PsiWhiteSpace('  ')
                PsiPerlStringSqImpl(Perl5: STRING_SQ)
                  PsiElement(Perl5: QUOTE_SINGLE_OPEN)(''')
                  PerlStringContentElementImpl(Perl5: STRING_CONTENT)(' ){\n    say ')
                  PsiElement(Perl5: QUOTE_SINGLE_CLOSE)(''')
              PsiErrorElement:Perl5: , or Perl5: => expected, got 'hi'
                PerlSubNameElementImpl(Perl5: subname)('hi')
              PsiElement(Perl5: QUOTE_SINGLE_OPEN)(''')
              PerlStringContentElementImpl(Perl5: STRING_CONTENT)('\n  }\n}\n')
