Reparsing block
----------
Full reparse
----------
After typing
----------
s<something ${
  say 'hi'; # ><caret>
} blabla
>/test/;
----------
Psi structure
----------
Perl5
  PsiPerlStatementImpl(Perl5: STATEMENT)
    PsiPerlReplacementRegexImpl(Perl5: REPLACEMENT_REGEX)
      PsiElement(Perl5: s)('s')
      PsiElement(Perl5: r{)('<')
      PsiPerlPerlRegexImpl(Perl5: PERL_REGEX)
        PsiElement(Perl5: regex)('something ')
        PsiPerlScalarCastExprImpl(Perl5: SCALAR_CAST_EXPR)
          PsiElement(Perl5: $$)('$')
          PsiPerlBlockScalarImpl(Perl5: BLOCK_SCALAR)
            PsiElement(Perl5: ${)('{')
            PsiWhiteSpace('\n  ')
            PsiPerlStatementImpl(Perl5: STATEMENT)
              PsiPerlPrintExprImpl(Perl5: PRINT_EXPR)
                PsiElement(Perl5: say)('say')
                PsiWhiteSpace(' ')
                PsiPerlCallArgumentsImpl(Perl5: CALL_ARGUMENTS)
                  PsiPerlStringSqImpl(Perl5: STRING_SQ)
                    PsiElement(Perl5: QUOTE_SINGLE_OPEN)(''')
                    PerlStringContentElementImpl(Perl5: STRING_CONTENT)('hi')
                    PsiElement(Perl5: QUOTE_SINGLE_CLOSE)(''')
              PsiElement(Perl5: ;)(';')
            PsiErrorElement:Perl5: $} expected, got '>'
              <empty list>
        PsiWhiteSpace(' ')
        PsiComment(Perl5: COMMENT_LINE)('# ')
      PsiElement(Perl5: r})('>')
      PsiWhiteSpace('\n')
      PsiElement(Perl5: r{)('}')
      PsiPerlRegexReplacementImpl(Perl5: REGEX_REPLACEMENT)
        PerlStringContentElementImpl(Perl5: STRING_CONTENT_QQ)(' blabla\n>/test/;')
      PsiErrorElement:Perl5: r} expected
        <empty list>
