Reparsing block
----------
Full reparse
----------
After typing
----------
sub somethingedit<caret>(){};

----------
Psi structure
----------
Perl5
  PsiPerlSubDefinitionImpl(SUB_DEFINITION)@main::somethingedit
    PsiElement(Perl5: sub)('sub')
    PsiWhiteSpace(' ')
    PerlSubNameElementImpl(Perl5: subname)('somethingedit')
    PsiElement(Perl5: ()('(')
    PsiElement(Perl5: ))(')')
    PsiPerlBlockImpl(Perl5: BLOCK)
      PsiElement(Perl5: {)('{')
      PsiElement(Perl5: })('}')
  PsiElement(Perl5: ;)(';')
  PsiWhiteSpace('\n')
