Reparsing block
----------
Full reparse
----------
After typing
----------
if($a){
  my $test = (2 + )<caret>);
}

----------
Psi structure
----------
Perl5
  PsiPerlIfCompoundImpl(Perl5: IF_COMPOUND)
    PsiElement(Perl5: if)('if')
    PsiPerlConditionalBlockImpl(Perl5: CONDITIONAL_BLOCK)
      PsiPerlConditionExprImpl(Perl5: CONDITION_EXPR)
        PsiElement(Perl5: ()('(')
        PsiPerlScalarVariableImpl(Perl5: SCALAR_VARIABLE)
          PsiElement(Perl5: $$)('$')
          PerlVariableNameElementImpl(Perl5: SCALAR_NAME)('a')
        PsiElement(Perl5: ))(')')
      PsiPerlBlockImpl(Perl5: BLOCK)
        PsiElement(Perl5: {)('{')
        PsiWhiteSpace('\n  ')
        PsiPerlStatementImpl(Perl5: STATEMENT)
          PsiPerlAssignExprImpl(Perl5: ASSIGN_EXPR)
            PsiPerlVariableDeclarationLexicalImpl(Perl5: VARIABLE_DECLARATION_LEXICAL)
              PsiElement(Perl5: my)('my')
              PsiWhiteSpace(' ')
              PsiPerlVariableDeclarationElementImpl(VARIABLE_DECLARATION_ELEMENT)
                PsiPerlScalarVariableImpl(Perl5: SCALAR_VARIABLE)
                  PsiElement(Perl5: $$)('$')
                  PerlVariableNameElementImpl(Perl5: SCALAR_NAME)('test')
            PsiWhiteSpace(' ')
            PsiElement(Perl5: =)('=')
            PsiWhiteSpace(' ')
            PsiPerlParenthesisedExprImpl(Perl5: PARENTHESISED_EXPR)
              PsiElement(Perl5: ()('(')
              PsiPerlAddExprImpl(Perl5: ADD_EXPR)
                PsiPerlNumberConstantImpl(Perl5: NUMBER_CONSTANT)
                  PsiElement(Perl5: NUMBER)('2')
                PsiWhiteSpace(' ')
                PsiElement(Perl5: +)('+')
                PsiErrorElement:<expr> expected, got ')'
                  <empty list>
              PsiWhiteSpace(' ')
              PsiElement(Perl5: ))(')')
          PsiErrorElement:<statement modifier>, Perl5: ,, Perl5: => or Perl5: [ expected, got ')'
            PsiElement(Perl5: ))(')')
          PsiElement(Perl5: ;)(';')
        PsiWhiteSpace('\n')
        PsiElement(Perl5: })('}')
  PsiWhiteSpace('\n')
