Reparsing block
----------
Full reparse
----------
After typing
----------
if($a){
  say 'hi';
  say $test[
    say => 'start',
    some => (<caret>,
    say =>'end'
  ];
}
----------
Psi structure
----------
Perl5
  PsiPerlIfCompoundImpl(Perl5: IF_COMPOUND)
    PsiElement(Perl5: if)('if')
    PsiPerlConditionalBlockImpl(Perl5: CONDITIONAL_BLOCK)
      PsiPerlConditionExprImpl(Perl5: CONDITION_EXPR)
        PsiElement(Perl5: ()('(')
        PsiPerlScalarVariableImpl(Perl5: SCALAR_VARIABLE)
          PsiElement(Perl5: $$)('$')
          PerlVariableNameElementImpl(Perl5: SCALAR_NAME)('a')
        PsiElement(Perl5: ))(')')
      PsiPerlBlockImpl(Perl5: BLOCK)
        PsiElement(Perl5: {)('{')
        PsiWhiteSpace('\n  ')
        PsiPerlStatementImpl(Perl5: STATEMENT)
          PsiPerlPrintExprImpl(Perl5: PRINT_EXPR)
            PsiElement(Perl5: say)('say')
            PsiWhiteSpace(' ')
            PsiPerlCallArgumentsImpl(Perl5: CALL_ARGUMENTS)
              PsiPerlStringSqImpl(Perl5: STRING_SQ)
                PsiElement(Perl5: QUOTE_SINGLE_OPEN)(''')
                PerlStringContentElementImpl(Perl5: STRING_CONTENT)('hi')
                PsiElement(Perl5: QUOTE_SINGLE_CLOSE)(''')
          PsiElement(Perl5: ;)(';')
        PsiWhiteSpace('\n  ')
        PsiPerlStatementImpl(Perl5: STATEMENT)
          PsiPerlPrintExprImpl(Perl5: PRINT_EXPR)
            PsiElement(Perl5: say)('say')
            PsiWhiteSpace(' ')
            PsiPerlCallArgumentsImpl(Perl5: CALL_ARGUMENTS)
              PsiPerlArrayElementImpl(Perl5: ARRAY_ELEMENT)
                PsiPerlScalarVariableImpl(Perl5: SCALAR_VARIABLE)
                  PsiElement(Perl5: $$)('$')
                  PerlVariableNameElementImpl(Perl5: SCALAR_NAME)('test')
                PsiPerlArrayIndexImpl(Perl5: ARRAY_INDEX)
                  PsiElement(Perl5: [)('[')
                  PsiWhiteSpace('\n    ')
                  PsiPerlCommaSequenceExprImpl(Perl5: COMMA_SEQUENCE_EXPR)
                    PsiPerlStringBareImpl(Perl5: STRING_BARE)
                      PerlStringContentElementImpl(Perl5: STRING_CONTENT)('say')
                    PsiWhiteSpace(' ')
                    PsiElement(Perl5: =>)('=>')
                    PsiWhiteSpace(' ')
                    PsiPerlStringSqImpl(Perl5: STRING_SQ)
                      PsiElement(Perl5: QUOTE_SINGLE_OPEN)(''')
                      PerlStringContentElementImpl(Perl5: STRING_CONTENT)('start')
                      PsiElement(Perl5: QUOTE_SINGLE_CLOSE)(''')
                    PsiElement(Perl5: ,)(',')
                    PsiWhiteSpace('\n    ')
                    PsiPerlStringBareImpl(Perl5: STRING_BARE)
                      PerlStringContentElementImpl(Perl5: STRING_CONTENT)('some')
                    PsiWhiteSpace(' ')
                    PsiElement(Perl5: =>)('=>')
                    PsiWhiteSpace(' ')
                    PsiPerlParenthesisedExprImpl(Perl5: PARENTHESISED_EXPR)
                      PsiElement(Perl5: ()('(')
                      PsiErrorElement:<expr> expected, got ','
                        PsiElement(Perl5: ,)(',')
                      PsiWhiteSpace('\n    ')
                      PerlStringContentElementImpl(Perl5: STRING_CONTENT)('say')
                      PsiWhiteSpace(' ')
                      PsiElement(Perl5: =>)('=>')
                      PsiElement(Perl5: QUOTE_SINGLE_OPEN)(''')
                      PerlStringContentElementImpl(Perl5: STRING_CONTENT)('end')
                      PsiElement(Perl5: QUOTE_SINGLE_CLOSE)(''')
                      PsiWhiteSpace('\n  ')
                      PsiElement(Perl5: ])(']')
                  PsiErrorElement:Perl5: ), Perl5: ,, Perl5: => or Perl5: [ expected, got ';'
                    PsiElement(Perl5: ;)(';')
                  PsiWhiteSpace('\n')
                  PsiElement(Perl5: })('}')
