Reparsing block
----------
Full reparse
----------
After typing
----------
if($a){
  say 'hi';
  my $test = {
    say => 'start',
    some => )<caret>,
    say =>'end'
  };
}
----------
Psi structure
----------
Perl5
  PsiPerlIfCompoundImpl(Perl5: IF_COMPOUND)
    PsiElement(Perl5: if)('if')
    PsiPerlConditionalBlockImpl(Perl5: CONDITIONAL_BLOCK)
      PsiPerlConditionExprImpl(Perl5: CONDITION_EXPR)
        PsiElement(Perl5: ()('(')
        PsiPerlScalarVariableImpl(Perl5: SCALAR_VARIABLE)
          PsiElement(Perl5: $$)('$')
          PerlVariableNameElementImpl(Perl5: SCALAR_NAME)('a')
        PsiElement(Perl5: ))(')')
      PsiPerlBlockImpl(Perl5: BLOCK)
        PsiElement(Perl5: {)('{')
        PsiWhiteSpace('\n  ')
        PsiPerlStatementImpl(Perl5: STATEMENT)
          PsiPerlPrintExprImpl(Perl5: PRINT_EXPR)
            PsiElement(Perl5: say)('say')
            PsiWhiteSpace(' ')
            PsiPerlCallArgumentsImpl(Perl5: CALL_ARGUMENTS)
              PsiPerlStringSqImpl(Perl5: STRING_SQ)
                PsiElement(Perl5: QUOTE_SINGLE_OPEN)(''')
                PerlStringContentElementImpl(Perl5: STRING_CONTENT)('hi')
                PsiElement(Perl5: QUOTE_SINGLE_CLOSE)(''')
          PsiElement(Perl5: ;)(';')
        PsiWhiteSpace('\n  ')
        PsiPerlStatementImpl(Perl5: STATEMENT)
          PsiPerlAssignExprImpl(Perl5: ASSIGN_EXPR)
            PsiPerlVariableDeclarationLexicalImpl(Perl5: VARIABLE_DECLARATION_LEXICAL)
              PsiElement(Perl5: my)('my')
              PsiWhiteSpace(' ')
              PsiPerlVariableDeclarationElementImpl(VARIABLE_DECLARATION_ELEMENT)
                PsiPerlScalarVariableImpl(Perl5: SCALAR_VARIABLE)
                  PsiElement(Perl5: $$)('$')
                  PerlVariableNameElementImpl(Perl5: SCALAR_NAME)('test')
            PsiWhiteSpace(' ')
            PsiElement(Perl5: =)('=')
            PsiWhiteSpace(' ')
            PsiPerlAnonHashImpl(Perl5: ANON_HASH)
              PsiElement(Perl5: {)('{')
              PsiWhiteSpace('\n    ')
              PsiPerlCommaSequenceExprImpl(Perl5: COMMA_SEQUENCE_EXPR)
                PsiPerlStringBareImpl(Perl5: STRING_BARE)
                  PerlStringContentElementImpl(Perl5: STRING_CONTENT)('say')
                PsiWhiteSpace(' ')
                PsiElement(Perl5: =>)('=>')
                PsiWhiteSpace(' ')
                PsiPerlStringSqImpl(Perl5: STRING_SQ)
                  PsiElement(Perl5: QUOTE_SINGLE_OPEN)(''')
                  PerlStringContentElementImpl(Perl5: STRING_CONTENT)('start')
                  PsiElement(Perl5: QUOTE_SINGLE_CLOSE)(''')
                PsiElement(Perl5: ,)(',')
                PsiWhiteSpace('\n    ')
                PsiPerlStringBareImpl(Perl5: STRING_BARE)
                  PerlStringContentElementImpl(Perl5: STRING_CONTENT)('some')
                PsiWhiteSpace(' ')
                PsiElement(Perl5: =>)('=>')
              PsiErrorElement:<expr>, Perl5: ,, Perl5: => or Perl5: } expected, got ')'
                <empty list>
          PsiWhiteSpace(' ')
          PsiElement(Perl5: ))(')')
          PsiElement(Perl5: ,)(',')
          PsiErrorElement:Semicolon expected
            <empty list>
        PsiWhiteSpace('\n    ')
        PsiPerlStatementImpl(Perl5: STATEMENT)
          PsiPerlCommaSequenceExprImpl(Perl5: COMMA_SEQUENCE_EXPR)
            PsiPerlStringBareImpl(Perl5: STRING_BARE)
              PerlStringContentElementImpl(Perl5: STRING_CONTENT)('say')
            PsiWhiteSpace(' ')
            PsiElement(Perl5: =>)('=>')
            PsiPerlStringSqImpl(Perl5: STRING_SQ)
              PsiElement(Perl5: QUOTE_SINGLE_OPEN)(''')
              PerlStringContentElementImpl(Perl5: STRING_CONTENT)('end')
              PsiElement(Perl5: QUOTE_SINGLE_CLOSE)(''')
        PsiWhiteSpace('\n  ')
        PsiElement(Perl5: })('}')
  PsiElement(Perl5: ;)(';')
  PsiWhiteSpace('\n')
  PsiErrorElement:<func definition>, <method definition>, <statement>, <sub definition>, Perl5: #@abstract, Perl5: #@deprecated, Perl5: #@inject, Perl5: #@method, Perl5: #@noinspection, Perl5: #@override, Perl5: #@returns, Perl5: #@type, Perl5: #@unknown, Perl5: BLOCK_NAME, Perl5: POD, Perl5: TryCatch::, Perl5: __DATA__, Perl5: __END__, Perl5: case, Perl5: default, Perl5: for, Perl5: foreach, Perl5: format, Perl5: fp_after, Perl5: fp_around, Perl5: fp_augment, Perl5: fp_before, Perl5: given, Perl5: if, Perl5: nyi, Perl5: package, Perl5: switch, Perl5: unless, Perl5: until, Perl5: when, Perl5: while or Perl5: { expected, got '}'
    PsiElement(Perl5: })('}')
