Reparsing block
----------
Full reparse
----------
After typing
----------
%{Foo::Bar::scalar_nameinsertion<caret>}
----------
Psi structure
----------
Perl5
  PsiPerlStatementImpl(Perl5: STATEMENT)
    PsiPerlHashVariableImpl(Perl5: HASH_VARIABLE)
      PsiElement(Perl5: $%)('%')
      PsiElement(Perl5: %{)('{')
      PerlVariableNameElementImpl(Perl5: HASH_NAME)('Foo::Bar::scalar_nameinsertion')
      PsiElement(Perl5: %})('}')
